<?xml version="1.0" standalone="no"?>
<!DOCTYPE svg PUBLIC "-//W3C//DTD SVG 1.1//EN" "http://www.w3.org/Graphics/SVG/1.1/DTD/svg11.dtd" >
<svg xmlns="http://www.w3.org/2000/svg">
<metadata>Generated by IcoMoon</metadata>
<defs>
<font id="icomoon" horiz-adv-x="1024">
<font-face units-per-em="1024" ascent="960" descent="-64" />
<missing-glyph horiz-adv-x="1024" />
<glyph unicode="&#x20;" horiz-adv-x="512" d="" />
<glyph unicode="&#xe900;" glyph-name="pharmeon-icon1" horiz-adv-x="883" d="M386.299 955.095c-38.937-4.905-110.371-23.301-110.371-28.206 0-1.226 11.957-2.453 26.98-2.453 57.025-0.92 108.532-28.206 144.709-76.34 25.753-34.644 36.79-66.529 36.79-106.079 0-54.879-25.447-96.881-84.005-139.19l-8.584-6.132 19.315-39.856c10.731-22.074 19.928-40.469 20.541-41.389 2.146-3.372 30.965 15.023 45.375 29.432 87.071 84.925 82.472 233.313-9.504 324.675-12.877 12.57-30.659 26.366-43.842 33.418-23.607 12.877-26.673 17.169-7.665 11.037 33.418-11.037 75.42-38.017 105.159-67.449 100.254-100.56 117.423-262.745 38.937-371.89-15.636-21.768-41.696-48.134-59.784-60.398-8.584-5.825-15.943-11.65-15.943-12.57 0-1.226 8.891-20.848 19.928-44.149 14.716-30.965 21.154-41.696 24.527-40.163 11.344 4.292 47.828 30.659 64.69 46.908 43.842 42.002 75.727 101.48 88.604 165.863 23.914 118.036-26.98 256.92-123.248 335.713-39.55 32.192-96.881 60.091-143.483 69.595-11.65 2.146-11.957 2.453-2.453 2.759 5.519 0.307 23.301-2.453 39.856-5.519 217.677-42.616 358.707-263.358 302.908-474.903-14.41-53.959-37.404-102.4-68.675-143.176-20.541-27.286-61.931-66.223-89.217-84.618l-23.914-15.636 5.825-12.877c3.066-6.745 10.731-23.607 17.475-37.097 6.438-13.49 16.556-34.644 22.074-46.601 5.519-12.263 11.037-22.381 11.957-22.381 1.226 0 12.877 6.438 26.366 14.103 91.056 53.040 164.944 144.709 198.975 246.496 15.943 48.134 21.768 86.151 21.768 144.096 0 58.558-6.132 97.188-22.074 144.096-62.544 183.339-227.794 306.28-417.878 311.186-22.687 0.613-46.295 0.307-52.12-0.307zM234.232 794.75c-29.432-15.943-64.077-41.696-92.589-68.982-67.143-64.077-110.065-142.256-131.219-237.911-7.358-33.418-8.278-44.762-8.278-90.443s0.92-57.025 8.278-90.443c31.578-143.789 122.635-259.986 252.628-322.223 60.091-28.819 121.715-42.616 189.164-42.616 50.28 0 89.523 5.825 133.672 20.235 36.177 11.344 50.28 18.395 26.98 12.877-7.358-1.533-25.753-2.453-41.083-1.533-64.996 3.066-126.007 45.068-156.359 107.305-24.834 51.2-25.753 91.669-3.066 138.884 9.504 19.622 38.63 51.813 61.011 66.836l16.556 11.65-12.877 28.206c-7.358 15.329-16.556 34.644-20.541 42.616l-7.665 14.716-21.461-15.329c-47.828-33.418-76.34-82.472-84.618-145.935-11.957-89.523 41.389-191.31 122.328-233.006 24.22-12.263 5.519-8.584-22.687 4.599-180.273 84.311-228.101 332.34-89.523 464.786 10.731 10.117 25.447 22.381 32.805 27.286 7.051 4.599 12.877 8.891 12.877 9.198 0 0.92-40.469 85.538-41.389 86.764-1.84 2.146-34.951-19.622-54.266-35.257-67.449-54.879-109.758-148.695-109.758-243.123 0-149.614 105.466-294.323 243.737-334.486 16.249-4.905 17.169-5.519 7.665-5.519-16.249-0.307-58.558 10.731-87.99 22.687-123.554 51.2-209.705 156.972-236.072 289.111-7.971 39.856-7.051 109.145 2.146 149.308 22.381 100.254 77.26 183.952 156.972 239.444 14.103 9.811 26.060 18.089 26.673 18.702 1.226 0.92-50.893 114.050-54.572 118.036-0.92 1.226-8.891-1.533-17.475-6.438z" />
<glyph unicode="&#xe901;" glyph-name="mijnmedicatie_black" horiz-adv-x="1041" d="M503.675 882.576c-67.434-22.478-104.065-74.094-100.735-144.859 1.665-31.636 8.325-50.784 24.143-71.597 36.631-48.286 308.033-314.693 334.673-328.846 96.572-49.951 213.958 35.798 198.972 145.691-2.498 21.646-10.823 47.454-16.65 56.611-22.478 31.636-315.525 322.185-336.338 333.008-29.971 14.985-74.927 19.98-104.065 9.99zM850.003 600.351c71.597-73.262 79.089-84.917 85.75-131.538 9.158-70.764-70.764-132.371-148.189-113.223-11.655 2.498-57.444 40.793-102.4 84.085l-80.754 79.089 78.257 79.089c43.291 43.291 81.587 79.089 85.75 79.089 3.33 0 39.961-34.133 81.587-76.592zM295.545 527.089c-159.011-35.798-242.263-200.637-174.829-347.161 68.267-149.021 263.909-188.982 385.457-79.089 131.538 119.883 94.907 338.003-67.434 409.6-39.128 17.483-105.73 24.976-143.193 16.65zM430.413 467.148c125.711-59.109 153.184-233.938 51.616-330.511-129.873-124.046-344.663-29.971-342.998 149.854 0.833 71.597 40.793 141.528 98.237 172.332 68.267 35.798 129.041 38.296 193.145 8.325zM331.343 295.649c-108.228-109.060-133.203-143.193-104.898-143.193 4.995 0 63.272 54.946 129.041 121.548 101.567 103.233 119.050 124.046 109.060 133.203-9.158 9.99-29.971-7.493-133.203-111.558z" />
<glyph unicode="&#xe902;" glyph-name="medicatie" horiz-adv-x="1041" d="M474.537 887.571c-70.764-26.641-110.725-124.046-83.252-199.805 10.823-27.473 318.023-338.836 352.989-357.984 80.754-42.459 200.637 18.315 218.12 111.558 11.655 63.272-4.163 87.415-173.997 258.914-88.247 89.080-173.997 168.169-190.647 177.327-29.971 14.985-94.907 20.813-123.213 9.99zM843.343 581.203c69.099-74.094 72.429-79.089 72.429-115.72 0-80.754-91.577-132.371-159.844-89.912-14.985 9.99-55.779 45.789-89.912 79.922l-62.439 63.272 74.094 74.094c40.793 40.793 78.257 72.429 83.252 69.932s41.626-39.128 82.42-81.587zM235.603 522.094c-49.119-18.315-105.73-71.597-132.371-125.711-46.621-94.075-24.976-221.45 49.119-295.545 48.286-48.286 99.902-69.099 172.332-69.099 54.114 0 70.764 4.163 118.218 27.473 93.242 45.789 142.361 121.548 142.361 222.283 0.833 100.735-50.784 180.657-145.691 228.943-43.291 20.813-59.941 24.976-109.893 24.143-32.468 0-74.927-5.828-94.075-12.488zM402.94 465.483c39.961-16.65 89.080-62.439 105.73-100.735 61.607-134.868-54.114-293.88-201.47-276.397-99.070 11.655-167.337 91.577-167.337 196.475 0 79.089 40.793 147.356 105.73 176.494 39.961 18.315 118.218 20.813 157.346 4.163zM308.865 298.979c-119.883-119.883-136.533-145.691-96.572-153.184 11.655-2.498 49.119 30.803 139.863 123.213 100.735 103.233 121.548 128.208 113.223 138.198-4.995 6.66-15.818 11.655-23.311 11.655s-67.434-54.114-133.203-119.883z" />
<glyph unicode="&#xe903;" glyph-name="mijnmedicatie" horiz-adv-x="1041" d="M416.26 829.294c-75.759-28.306-114.888-135.701-76.592-210.628 13.32-27.473 15.818-28.306 57.444-25.808 52.449 2.498 128.208-17.483 170.667-45.789 17.483-10.823 34.133-19.98 37.463-19.98s24.976 18.315 48.286 41.626c22.478 22.478 45.789 38.296 49.951 34.966 4.995-3.33 40.793-39.961 81.587-81.587 69.932-73.262 72.429-77.424 72.429-114.888 0-32.468-4.995-43.291-28.306-69.932-26.641-28.306-32.468-30.803-74.927-30.803-41.626 0-46.621-1.665-50.784-19.98-6.66-25.808-4.163-27.473 45.789-27.473 103.233 0.833 178.159 93.242 149.854 187.317-8.325 28.306-39.961 65.769-169.002 195.642-88.247 89.080-173.997 168.169-190.647 177.327-29.971 14.985-94.907 20.813-123.213 9.99zM326.348 545.405c-86.582-31.636-144.859-99.902-160.676-190.647-28.306-159.844 86.582-298.875 246.426-297.21 222.283 0.833 338.836 255.584 191.48 417.925-65.769 73.262-183.987 103.233-277.229 69.932zM486.192 490.459c39.961-16.65 89.080-62.439 105.73-100.735 61.607-134.868-54.114-293.88-201.47-276.397-99.070 11.655-167.337 91.577-167.337 196.475 0 79.089 40.793 147.356 105.73 176.494 39.961 18.315 118.218 20.813 157.346 4.163zM392.117 323.954c-119.883-119.883-136.533-145.691-96.572-153.184 11.655-2.498 49.119 30.803 139.863 123.213 100.735 103.233 121.548 128.208 113.223 138.198-4.995 6.66-15.818 11.655-23.311 11.655s-67.434-54.114-133.203-119.883z" />
</font></defs></svg>